module gitlab.com/ctronco/terraform-provider-vra7tenant

require (
	github.com/dghubble/sling v1.3.0
	github.com/hashicorp/go-cleanhttp v0.5.1 // indirect
	github.com/hashicorp/go-hclog v0.9.0 // indirect
	github.com/hashicorp/go-version v1.2.0 // indirect
	github.com/hashicorp/hcl v1.0.0 // indirect
	github.com/hashicorp/hil v0.0.0-20190212132231-97b3a9cdfa93 // indirect
	github.com/hashicorp/terraform v0.12.6
	github.com/mitchellh/go-homedir v1.1.0 // indirect
	github.com/mitchellh/reflectwalk v1.0.1 // indirect
	github.com/nu7hatch/gouuid v0.0.0-20131221200532-179d4d0c4d8d
	github.com/op/go-logging v0.0.0-20160211212156-b2cb9fa56473
	golang.org/x/net v0.0.0-20190503192946-f4e77d36d62c // indirect
	gopkg.in/jarcoal/httpmock.v1 v1.0.0-20170412085702-cf52904a3cf0
)

go 1.13
